{
  "coc.preferences.timeout": 3000,
  "html.filetypes": ["html","handlebars","pug"],
  "css.filetypes": ["css", "less", "scss", "sass"],
  "vetur.useWorkspaceDependencies": true,
  "python.jediEnabled":  false,
  "python.linting.pylintEnabled": false,
  "python.linting.pep8Enabled": false,
  "python.linting.flake8Enabled": true,
  // "python.linting.flake8Path": "~/.local/bin/flake8",
  "python.linting.enabled": true,
  "python.formatting.provider": "autopep8",
  // "python.formatting.blackPath": "~/.local/bin/black",
  "suggest.enablePreview": true,
  "emmet.includeLanguages": {"pug": "html"},
  "codeLens.enable":  true,
  "tabnine.binary_path": "~/.TabNine/2.9.4/x86_64-unknown-linux-musl/TabNine",

  "languageserver": {
    "haskell": {
      "command": "haskell-language-server-wrapper",
      "args": ["--lsp"],
      "rootPatterns": [
        "*.cabal",
        ".stack.yaml",
        "cabal.project",
        "package.yaml",
        "hie.yaml"
      ],
      "filetypes": [
        "hs",
        "lhs",
        "haskell"
      ],
      "initializationOptions": {
        "languageServerHaskell": {
          "hlintOn": true,
          "formattingProvider" : "brittany"
        }
      }
    },
    "elmLS": {
      "command": "elm-language-server",
      "filetypes": ["elm"],
      "rootPatterns": ["elm.json"],
      "trace.server": "verbose",
      "initializationOptions": {
        "elmPath": "elm",
        "elmFormatPath": "elm-format",
        "elmTestPath": "elm-test",
        "elmAnalyseTrigger": "change"
      }
    },
    "digestif": {
      "command": "digestif",
      "filetypes": ["tex", "plaintex", "context"]
    },
    "ccls": {
        "command": "ccls",
        "filetypes": [
            "c",
            "cpp",
            "objc",
            "objcpp"
        ],
        "rootPatterns": [
            ".ccls",
            "compile_commands.json",
            ".vim/",
            ".git/",
            ".hg/"
        ],
        "initializationOptions": {
            "cache": {
                "directory": "/tmp/ccls"
            }
        }
    }
  }
}
